ООО "Рога и копыта";г. Москва, ул. Башиловская, д. 50, кв.10;127001;конкурсный;1497536866;Петров Иван Иванович
ООО "Маша и медведь";Волгоградская обл, Николаевский р-н, Николаевск г, ул. Кирова, д. 2;404032;конкурсный;1497536867;Кириенко Тимофей Владиславович
ОАО "Компьютер";Волгоградская обл, Николаевский р-н, Николаевск г, ул. Ленина, д. 2;404032;конкурсный;1497536867;ООО "Рога и копыта"
